Aspect 2 demonstration
…
Aspect 2 demonstration

library(pbsEDM)

Introduction

In the manuscript, the library contains the candidate points that can be used to determine the nearest neighbours of the focal point from which we are making a prediction. Aspect 2 concerns which points can be considered as being in the library, and which should be excluded. Here we find that occasionally rEDM includes some points that should be excluded.

We use the simulated population time series from the manuscript, with first-differenced values denoted \(Y_t\) at \(t = 1, 2, 3, ..., 99, 100\). We extract them from the saved tibble NY_lags_example_3:

input <-  dplyr::select(NY_lags_example_3, t, Y_t) %>%
  dplyr::rename(Time = t)
input
# A tibble: 100 × 2
    Time     Y_t
   <int>   <dbl>
 1     1 -0.0565
 2     2  0.0592
 3     3  5.24  
 4     4 -4.85  
 5     5 -0.461 
 6     6  0.273 
 7     7  0.802 
 8     8 -0.889 
 9     9 -0.203 
10    10  0.498 
# ℹ 90 more rows
…
