pbsSmap example
…
pbsSmap example

library(pbsEDM)

Introduction

Example use of the pbsSmap() function for implementing the S-map algorithm, giving the results reported in the manuscript.

Again we use the simulated population time series from the manuscript, with population size denoted \(N_t\) and first-differenced values denoted \(Y_t\) at \(t = 1, 2, 3, ..., 99, 100\). We extract them from the saved tibble NY_lags_example_3:

input <-  dplyr::select(NY_lags_example_3, t, N_t, Y_t) %>%
  dplyr::rename(Time = t)
input
# A tibble: 100 × 3
    Time    N_t     Y_t
   <int>  <dbl>   <dbl>
 1     1 0.0995 -0.0565
 2     2 0.0430  0.0592
 3     3 0.102   5.24  
 4     4 5.34   -4.85  
 5     5 0.489  -0.461 
 6     6 0.0281  0.273 
 7     7 0.301   0.802 
 8     8 1.10   -0.889 
 9     9 0.214  -0.203 
10    10 0.0116  0.498 
# … with 90 more rows
…
